{
 "actions": [],
 "allow_rename": 1,
 "autoname": "naming_series:",
 "creation": "2023-08-18 08:38:43.266431",
 "default_view": "List",
 "doctype": "DocType",
 "editable_grid": 1,
 "engine": "InnoDB",
 "field_order": [
  "naming_series",
  "liga",
  "codigo_disciplina",
  "disciplina",
  "secc001",
  "seleccionados"
 ],
 "fields": [
  {
   "fieldname": "naming_series",
   "fieldtype": "Select",
   "label": "Codigo",
   "options": "S-"
  },
  {
   "fieldname": "liga",
   "fieldtype": "Link",
   "label": "Liga",
   "options": "Liga"
  },
  {
   "fieldname": "codigo_disciplina",
   "fieldtype": "Link",
   "label": "Codigo Disciplina",
   "options": "Disciplina"
  },
  {
   "fetch_from": "codigo_disciplina.disciplina",
   "fieldname": "disciplina",
   "fieldtype": "Data",
   "label": "DIsciplina"
  },
  {
   "fieldname": "secc001",
   "fieldtype": "Section Break",
   "label": "Jugadores"
  },
  {
   "fieldname": "seleccionados",
   "fieldtype": "Table",
   "label": "Jugadores",
   "options": "Seleccionados"
  }
 ],
 "index_web_pages_for_search": 1,
 "links": [],
 "modified": "2023-08-18 08:38:43.266431",
 "modified_by": "Administrator",
 "module": "Kopa",
 "name": "SeleccionadosDiscCamp",
 "naming_rule": "By \"Naming Series\" field",
 "owner": "Administrator",
 "permissions": [
  {
   "create": 1,
   "delete": 1,
   "email": 1,
   "export": 1,
   "print": 1,
   "read": 1,
   "report": 1,
   "role": "System Manager",
   "share": 1,
   "write": 1
  }
 ],
 "sort_field": "modified",
 "sort_order": "DESC",
 "states": [],
 "track_changes": 1
}