{
 "add_total_row": 0,
 "columns": [],
 "creation": "2023-03-03 12:36:14.518795",
 "disable_prepared_report": 0,
 "disabled": 0,
 "docstatus": 0,
 "doctype": "Report",
 "filters": [],
 "idx": 0,
 "is_standard": "Yes",
 "modified": "2023-03-03 12:36:14.518795",
 "modified_by": "Administrator",
 "module": "FEDEPROBAT",
 "name": "Lista de pases",
 "owner": "Administrator",
 "prepared_report": 0,
 "query": "SELECT tjpp.name,j.ci as CI,tjpp.jugador AS Jugador,tjpp.liga as Liga, \r\ntjpp.club as Club,\r\ncase tjpp.aprobadoliga\r\nwhen 0 then\r\n    \"Pendiente\"\r\nwhen 1 then\r\n    \"Aprobado\"\r\nEND AS \"Aprobado Liga:Data:100\",\r\ncase tjpp.tesoreriafedeprobat\r\nwhen 0 then\r\n    \"Pendiente\"\r\nwhen 1 then\r\n    \"Aprobado\"\r\nEND AS \"Aprobado FEDEPROBAT:Data:100\"\r\nfrom tabJugadoresPasePendiente tjpp\r\ninner join tabJugador j\r\non j.ci=tjpp.ci\r\n",
 "ref_doctype": "JugadoresPasePendiente",
 "report_name": "Lista de pases",
 "report_type": "Query Report",
 "roles": [
  {
   "role": "System Manager"
  },
  {
   "role": "Administrador Club"
  },
  {
   "role": "Administrador Liga"
  }
 ]
}