{
 "actions": [],
 "allow_rename": 1,
 "autoname": "naming_series:",
 "creation": "2022-03-03 00:47:25.752112",
 "doctype": "DocType",
 "editable_grid": 1,
 "engine": "InnoDB",
 "field_order": [
  "naming_series",
  "campeonato",
  "liga",
  "club",
  "eventoaprobado",
  "col001",
  "disciplina",
  "grupo",
  "categoria",
  "sec001",
  "listajugadores"
 ],
 "fields": [
  {
   "fieldname": "naming_series",
   "fieldtype": "Select",
   "label": "Series",
   "options": "ICFD-YYYY-"
  },
  {
   "fieldname": "campeonato",
   "fieldtype": "Link",
   "in_list_view": 1,
   "label": "Campeonato",
   "options": "Eventos Deportivos FEDEPROBAT"
  },
  {
   "fieldname": "liga",
   "fieldtype": "Link",
   "in_list_view": 1,
   "in_standard_filter": 1,
   "label": "Liga",
   "options": "Liga"
  },
  {
   "fieldname": "club",
   "fieldtype": "Link",
   "in_list_view": 1,
   "in_standard_filter": 1,
   "label": "Club",
   "options": "Club"
  },
  {
   "default": "0",
   "description": "Si el Club participante aprueba el evento bajo las reglas.",
   "fieldname": "eventoaprobado",
   "fieldtype": "Check",
   "in_list_view": 1,
   "label": "Evento Aprobado"
  },
  {
   "fieldname": "col001",
   "fieldtype": "Column Break"
  },
  {
   "fieldname": "disciplina",
   "fieldtype": "Link",
   "label": "Disciplina",
   "options": "Disciplinas FEDEPROBAT"
  },
  {
   "fieldname": "grupo",
   "fieldtype": "Select",
   "label": "Grupo",
   "options": "General\nMujeres\nHombres"
  },
  {
   "fieldname": "categoria",
   "fieldtype": "Link",
   "label": "Categoria",
   "options": "Categorias FEDEPROBAT"
  },
  {
   "fieldname": "sec001",
   "fieldtype": "Section Break",
   "label": "Jugadores"
  },
  {
   "fieldname": "listajugadores",
   "fieldtype": "Table",
   "label": "Jugadores",
   "options": "JugadoresClubFEDEPROBAT"
  }
 ],
 "index_web_pages_for_search": 1,
 "links": [],
 "modified": "2023-03-19 12:44:38.039081",
 "modified_by": "Administrator",
 "module": "Kopa",
 "name": "Inscripciones Clubes FEDEPROBAT",
 "naming_rule": "By \"Naming Series\" field",
 "owner": "Administrator",
 "permissions": [
  {
   "create": 1,
   "delete": 1,
   "email": 1,
   "export": 1,
   "print": 1,
   "read": 1,
   "report": 1,
   "role": "System Manager",
   "share": 1,
   "write": 1
  },
  {
   "create": 1,
   "delete": 1,
   "email": 1,
   "export": 1,
   "print": 1,
   "read": 1,
   "report": 1,
   "role": "Administrador Liga",
   "share": 1,
   "write": 1
  },
  {
   "create": 1,
   "delete": 1,
   "email": 1,
   "export": 1,
   "print": 1,
   "read": 1,
   "report": 1,
   "role": "FEDEPROBAT",
   "share": 1,
   "write": 1
  }
 ],
 "search_fields": "campeonato,liga,club,disciplina",
 "sort_field": "modified",
 "sort_order": "DESC",
 "states": [],
 "title_field": "campeonato",
 "track_changes": 1
}