{
 "actions": [],
 "creation": "2023-10-03 18:36:24.657999",
 "default_view": "List",
 "doctype": "DocType",
 "editable_grid": 1,
 "engine": "InnoDB",
 "field_order": [
  "club_local",
  "local",
  "categorialocal",
  "ligalocal",
  "marcador_local",
  "column_break_4",
  "club_visitante",
  "visitante",
  "categoriavisitante",
  "ligavisitante",
  "marcador_visitante",
  "secc000004",
  "codigovocal",
  "numero_fecha",
  "fecha",
  "hora",
  "column_break_6",
  "vocal",
  "estadio",
  "nombreestadio",
  "jugado_diferido",
  "suspendido",
  "goles_sanciones_y_asistencias_section",
  "golesl",
  "tal",
  "trl",
  "asistencial",
  "column_break_18",
  "goles_v",
  "ta_v",
  "tr_v",
  "asistencia_v"
 ],
 "fields": [
  {
   "fieldname": "club_local",
   "fieldtype": "Link",
   "label": "Club Local",
   "options": "Club"
  },
  {
   "fetch_from": "club_local.nombre",
   "fieldname": "local",
   "fieldtype": "Read Only",
   "in_list_view": 1,
   "label": "Local"
  },
  {
   "fetch_from": "club_local.nombrecategoria",
   "fieldname": "categorialocal",
   "fieldtype": "Data",
   "hidden": 1,
   "label": "Categoria Local"
  },
  {
   "fieldname": "ligalocal",
   "fieldtype": "Link",
   "hidden": 1,
   "label": "Liga",
   "options": "Liga"
  },
  {
   "default": "0",
   "fieldname": "marcador_local",
   "fieldtype": "Int",
   "in_list_view": 1,
   "label": "M. Local"
  },
  {
   "fieldname": "column_break_4",
   "fieldtype": "Column Break"
  },
  {
   "fieldname": "club_visitante",
   "fieldtype": "Link",
   "label": "Club Visitante",
   "options": "Club"
  },
  {
   "fetch_from": "club_visitante.nombre",
   "fieldname": "visitante",
   "fieldtype": "Read Only",
   "in_list_view": 1,
   "label": "Visitante"
  },
  {
   "fetch_from": "club_visitante.nombrecategoria",
   "fieldname": "categoriavisitante",
   "fieldtype": "Data",
   "hidden": 1,
   "label": "Categoria Visitante"
  },
  {
   "fieldname": "ligavisitante",
   "fieldtype": "Link",
   "hidden": 1,
   "label": "Liga",
   "options": "Liga"
  },
  {
   "default": "0",
   "fieldname": "marcador_visitante",
   "fieldtype": "Int",
   "in_list_view": 1,
   "label": "M. Visitante"
  },
  {
   "fieldname": "secc000004",
   "fieldtype": "Section Break"
  },
  {
   "fieldname": "codigovocal",
   "fieldtype": "Link",
   "label": "Codigo Vocal",
   "options": "Club"
  },
  {
   "fieldname": "numero_fecha",
   "fieldtype": "Int",
   "in_list_view": 1,
   "label": "Fecha N."
  },
  {
   "fieldname": "fecha",
   "fieldtype": "Date",
   "label": "Fecha"
  },
  {
   "fieldname": "hora",
   "fieldtype": "Time",
   "label": "Hora"
  },
  {
   "fieldname": "column_break_6",
   "fieldtype": "Column Break"
  },
  {
   "fetch_from": "codigovocal.nombre",
   "fieldname": "vocal",
   "fieldtype": "Read Only",
   "label": "Vocal"
  },
  {
   "fieldname": "estadio",
   "fieldtype": "Link",
   "label": "Estadio",
   "options": "Estadios"
  },
  {
   "fetch_from": "estadio.estadio",
   "fieldname": "nombreestadio",
   "fieldtype": "Read Only",
   "label": "Nombre Estadio"
  },
  {
   "default": "1",
   "fieldname": "jugado_diferido",
   "fieldtype": "Check",
   "in_list_view": 1,
   "in_preview": 1,
   "label": "J-D"
  },
  {
   "default": "0",
   "fieldname": "suspendido",
   "fieldtype": "Check",
   "label": "Sustependido"
  },
  {
   "fieldname": "goles_sanciones_y_asistencias_section",
   "fieldtype": "Section Break",
   "label": "Goles, Sanciones y Asistencias"
  },
  {
   "fieldname": "golesl",
   "fieldtype": "Data",
   "label": "Goles L"
  },
  {
   "fieldname": "tal",
   "fieldtype": "Data",
   "label": "TA L"
  },
  {
   "fieldname": "trl",
   "fieldtype": "Data",
   "label": "TR L"
  },
  {
   "fieldname": "asistencial",
   "fieldtype": "Data",
   "label": "Asistencia L"
  },
  {
   "fieldname": "column_break_18",
   "fieldtype": "Column Break"
  },
  {
   "fieldname": "goles_v",
   "fieldtype": "Data",
   "label": "Goles V"
  },
  {
   "fieldname": "ta_v",
   "fieldtype": "Data",
   "label": "TA V"
  },
  {
   "fieldname": "tr_v",
   "fieldtype": "Data",
   "label": "TR V"
  },
  {
   "fieldname": "asistencia_v",
   "fieldtype": "Data",
   "label": "Asistencia V"
  }
 ],
 "istable": 1,
 "links": [],
 "modified": "2023-10-03 18:36:24.657999",
 "modified_by": "Administrator",
 "module": "LIGAS",
 "name": "CalendarioFederacion",
 "owner": "Administrator",
 "permissions": [],
 "sort_field": "modified",
 "sort_order": "DESC",
 "states": []
}