{
 "actions": [],
 "allow_rename": 1,
 "autoname": "field:usuario",
 "creation": "2022-01-27 21:06:23.532674",
 "doctype": "DocType",
 "editable_grid": 1,
 "engine": "InnoDB",
 "field_order": [
  "usuario",
  "federacion",
  "liga",
  "club"
 ],
 "fields": [
  {
   "fieldname": "usuario",
   "fieldtype": "Link",
   "label": "Usuario",
   "options": "User",
   "reqd": 1,
   "unique": 1
  },
  {
   "fieldname": "liga",
   "fieldtype": "Link",
   "in_list_view": 1,
   "label": "Liga",
   "options": "Liga"
  },
  {
   "fieldname": "club",
   "fieldtype": "Link",
   "in_list_view": 1,
   "label": "Club",
   "options": "Club"
  },
  {
   "fieldname": "federacion",
   "fieldtype": "Link",
   "label": "Federacion",
   "options": "federacion",
   "reqd": 1
  }
 ],
 "index_web_pages_for_search": 1,
 "links": [],
 "modified": "2023-09-19 00:55:10.202238",
 "modified_by": "Administrator",
 "module": "Kopa",
 "name": "usuarios_ligas_equipo",
 "naming_rule": "By fieldname",
 "owner": "Administrator",
 "permissions": [
  {
   "create": 1,
   "delete": 1,
   "email": 1,
   "export": 1,
   "print": 1,
   "read": 1,
   "report": 1,
   "role": "System Manager",
   "share": 1,
   "write": 1
  }
 ],
 "sort_field": "modified",
 "sort_order": "DESC",
 "states": []
}