{
 "actions": [],
 "autoname": "field:nombre",
 "creation": "2020-02-08 17:34:40.268235",
 "doctype": "DocType",
 "editable_grid": 1,
 "engine": "InnoDB",
 "field_order": [
  "codigo",
  "nombre",
  "descripcion",
  "resolucion_ministerial",
  "fecha_fundacion",
  "logo"
 ],
 "fields": [
  {
   "fieldname": "codigo",
   "fieldtype": "Data",
   "label": "codigo"
  },
  {
   "fieldname": "nombre",
   "fieldtype": "Data",
   "in_list_view": 1,
   "label": "Nombre",
   "reqd": 1,
   "unique": 1
  },
  {
   "fieldname": "descripcion",
   "fieldtype": "Data",
   "label": "Descripci\u00f3n"
  },
  {
   "fieldname": "resolucion_ministerial",
   "fieldtype": "Data",
   "label": "Resoluci\u00f3n Ministerial"
  },
  {
   "fieldname": "fecha_fundacion",
   "fieldtype": "Date",
   "label": "Fecha Fundaci\u00f3n"
  },
  {
   "fieldname": "logo",
   "fieldtype": "Attach Image",
   "label": "Logo"
  }
 ],
 "links": [],
 "modified": "2022-04-05 12:24:48.009985",
 "modified_by": "Administrator",
 "module": "ADMINFEDERACION",
 "name": "Liga",
 "owner": "Administrator",
 "permissions": [
  {
   "create": 1,
   "delete": 1,
   "email": 1,
   "export": 1,
   "print": 1,
   "read": 1,
   "report": 1,
   "role": "System Manager",
   "share": 1,
   "write": 1
  },
  {
   "email": 1,
   "export": 1,
   "print": 1,
   "read": 1,
   "report": 1,
   "role": "Administrador Liga",
   "select": 1,
   "share": 1
  },
  {
   "email": 1,
   "export": 1,
   "print": 1,
   "read": 1,
   "report": 1,
   "role": "Administrador Club",
   "select": 1,
   "share": 1,
   "write": 1
  },
  {
   "create": 1,
   "delete": 1,
   "email": 1,
   "export": 1,
   "print": 1,
   "read": 1,
   "report": 1,
   "role": "FEDEPROBAT",
   "select": 1,
   "share": 1,
   "write": 1
  }
 ],
 "quick_entry": 1,
 "sort_field": "modified",
 "sort_order": "DESC",
 "track_changes": 1
}