{
 "actions": [],
 "allow_rename": 1,
 "autoname": "field:codigo",
 "creation": "2022-01-25 09:39:39.424044",
 "doctype": "DocType",
 "editable_grid": 1,
 "engine": "InnoDB",
 "field_order": [
  "codigo",
  "federacion",
  "liga_origen",
  "liga",
  "club",
  "club_origen",
  "federacion_destino",
  "liga_destino",
  "codigo_club_destino",
  "club_destino",
  "col001",
  "ci",
  "jugador",
  "fecha_aprobacion",
  "no_de_recibo",
  "amended_from",
  "sec001",
  "aprobado"
 ],
 "fields": [
  {
   "fieldname": "codigo",
   "fieldtype": "Read Only",
   "in_list_view": 1,
   "in_standard_filter": 1,
   "label": "C\u00f3digo",
   "unique": 1
  },
  {
   "fieldname": "liga",
   "fieldtype": "Link",
   "hidden": 1,
   "in_list_view": 1,
   "label": "Liga",
   "options": "Liga"
  },
  {
   "fieldname": "club",
   "fieldtype": "Link",
   "hidden": 1,
   "label": "Liga - Club Origen",
   "options": "Club"
  },
  {
   "fieldname": "col001",
   "fieldtype": "Column Break"
  },
  {
   "fetch_from": "codigo.ci",
   "fieldname": "ci",
   "fieldtype": "Read Only",
   "label": "CI"
  },
  {
   "fetch_from": "codigo.jugador",
   "fieldname": "jugador",
   "fieldtype": "Read Only",
   "label": "Jugador"
  },
  {
   "fieldname": "fecha_aprobacion",
   "fieldtype": "Date",
   "label": "Fecha Aprobacion"
  },
  {
   "fieldname": "no_de_recibo",
   "fieldtype": "Data",
   "label": "N\u00b0 de recibo"
  },
  {
   "fieldname": "amended_from",
   "fieldtype": "Link",
   "label": "Amended From",
   "no_copy": 1,
   "options": "PasesAprobadosLiga",
   "print_hide": 1,
   "read_only": 1
  },
  {
   "fieldname": "sec001",
   "fieldtype": "Section Break",
   "label": "Apobado por FEDEPROBAT"
  },
  {
   "default": "0",
   "fieldname": "aprobado",
   "fieldtype": "Check",
   "label": "Aprobado",
   "read_only": 1
  },
  {
   "fieldname": "federacion",
   "fieldtype": "Read Only",
   "label": "FEDERACION"
  },
  {
   "fieldname": "club_destino",
   "fieldtype": "Data",
   "label": "Club Destino"
  },
  {
   "fieldname": "club_origen",
   "fieldtype": "Read Only",
   "label": "Club Origen"
  },
  {
   "fieldname": "codigo_club_destino",
   "fieldtype": "Read Only",
   "hidden": 1,
   "label": "Liga - Club destino"
  },
  {
   "fieldname": "federacion_destino",
   "fieldtype": "Read Only",
   "label": "FEDERACION Destino"
  },
  {
   "fieldname": "liga_origen",
   "fieldtype": "Read Only",
   "label": "Liga Origen"
  },
  {
   "fieldname": "liga_destino",
   "fieldtype": "Read Only",
   "label": "Liga Destino"
  }
 ],
 "index_web_pages_for_search": 1,
 "is_submittable": 1,
 "links": [],
 "modified": "2024-04-10 01:39:46.795216",
 "modified_by": "Administrator",
 "module": "LIGAS",
 "name": "PasesAprobadosLiga",
 "naming_rule": "By fieldname",
 "owner": "Administrator",
 "permissions": [
  {
   "create": 1,
   "delete": 1,
   "email": 1,
   "export": 1,
   "print": 1,
   "read": 1,
   "report": 1,
   "role": "System Manager",
   "select": 1,
   "share": 1,
   "write": 1
  },
  {
   "email": 1,
   "export": 1,
   "print": 1,
   "read": 1,
   "report": 1,
   "role": "Administrador Liga",
   "select": 1,
   "share": 1,
   "write": 1
  },
  {
   "email": 1,
   "export": 1,
   "print": 1,
   "read": 1,
   "report": 1,
   "role": "Tesorer\u00eda Fedeprobat",
   "select": 1,
   "share": 1,
   "write": 1
  },
  {
   "email": 1,
   "export": 1,
   "print": 1,
   "read": 1,
   "report": 1,
   "role": "Administrador Club",
   "select": 1,
   "share": 1
  },
  {
   "email": 1,
   "export": 1,
   "print": 1,
   "read": 1,
   "report": 1,
   "role": "FEDERACION CALIFICACION",
   "select": 1,
   "share": 1
  }
 ],
 "search_fields": "ci,jugador",
 "sort_field": "modified",
 "sort_order": "DESC",
 "states": [],
 "title_field": "ci",
 "track_changes": 1
}