{
 "actions": [],
 "allow_rename": 1,
 "autoname": "format:{nombre}-{anio}",
 "creation": "2022-03-02 10:32:01.284738",
 "doctype": "DocType",
 "editable_grid": 1,
 "engine": "InnoDB",
 "field_order": [
  "nombre",
  "anio",
  "fecha_inicio",
  "fecha_fin",
  "col001",
  "activo",
  "sec001",
  "fechainicio",
  "fechafin"
 ],
 "fields": [
  {
   "fieldname": "nombre",
   "fieldtype": "Data",
   "in_list_view": 1,
   "label": "Nombre",
   "reqd": 1
  },
  {
   "fieldname": "fecha_inicio",
   "fieldtype": "Date",
   "in_list_view": 1,
   "label": "Fecha Inicio",
   "reqd": 1
  },
  {
   "fieldname": "fecha_fin",
   "fieldtype": "Date",
   "in_list_view": 1,
   "label": "Fecha Fin",
   "reqd": 1
  },
  {
   "default": "0",
   "fieldname": "activo",
   "fieldtype": "Check",
   "label": "Activo"
  },
  {
   "fieldname": "col001",
   "fieldtype": "Column Break"
  },
  {
   "fieldname": "sec001",
   "fieldtype": "Section Break",
   "label": "Fecha de Inscripciones"
  },
  {
   "fieldname": "fechainicio",
   "fieldtype": "Date",
   "label": "Fecha Inicio"
  },
  {
   "fieldname": "fechafin",
   "fieldtype": "Date",
   "label": "Fecha Fin"
  },
  {
   "fieldname": "anio",
   "fieldtype": "Date",
   "in_list_view": 1,
   "label": "A\u00f1o",
   "options": "YYYY"
  }
 ],
 "index_web_pages_for_search": 1,
 "links": [],
 "modified": "2022-03-03 01:09:22.040797",
 "modified_by": "Administrator",
 "module": "FEDEPROBAT",
 "name": "Eventos Deportivos FEDEPROBAT",
 "owner": "Administrator",
 "permissions": [
  {
   "create": 1,
   "delete": 1,
   "email": 1,
   "export": 1,
   "print": 1,
   "read": 1,
   "report": 1,
   "role": "System Manager",
   "share": 1,
   "write": 1
  }
 ],
 "search_fields": "nombre, anio",
 "sort_field": "modified",
 "sort_order": "DESC",
 "title_field": "nombre",
 "track_changes": 1
}