{
 "actions": [],
 "allow_rename": 1,
 "creation": "2025-01-09 13:52:53.255022",
 "doctype": "DocType",
 "engine": "InnoDB",
 "field_order": [
  "empresa",
  "url",
  "whatsapp",
  "publicidad_full",
  "column_break_lzvc",
  "publicidad_horizontal",
  "publicidad_opcional",
  "publicidad_vertical"
 ],
 "fields": [
  {
   "fieldname": "empresa",
   "fieldtype": "Data",
   "label": "Empresa"
  },
  {
   "fieldname": "publicidad_full",
   "fieldtype": "Attach Image",
   "label": "Publicidad full"
  },
  {
   "fieldname": "publicidad_horizontal",
   "fieldtype": "Attach Image",
   "label": "Publicidad Horizontal"
  },
  {
   "fieldname": "publicidad_opcional",
   "fieldtype": "Attach Image",
   "label": "Publicidad opcional"
  },
  {
   "fieldname": "column_break_lzvc",
   "fieldtype": "Column Break"
  },
  {
   "fieldname": "url",
   "fieldtype": "Data",
   "label": "Url"
  },
  {
   "fieldname": "publicidad_vertical",
   "fieldtype": "Attach Image",
   "label": "Publicidad Vertical"
  },
  {
   "fieldname": "whatsapp",
   "fieldtype": "Data",
   "label": "Whatsapp"
  }
 ],
 "index_web_pages_for_search": 1,
 "links": [],
 "modified": "2025-01-13 23:47:03.739257",
 "modified_by": "Administrator",
 "module": "Kopa",
 "name": "Publicidad",
 "owner": "Administrator",
 "permissions": [
  {
   "create": 1,
   "delete": 1,
   "email": 1,
   "export": 1,
   "print": 1,
   "read": 1,
   "report": 1,
   "role": "System Manager",
   "share": 1,
   "write": 1
  }
 ],
 "sort_field": "modified",
 "sort_order": "DESC",
 "states": []
}