{
 "actions": [],
 "allow_rename": 1,
 "autoname": "field:nombre",
 "creation": "2022-03-02 11:38:15.182878",
 "doctype": "DocType",
 "editable_grid": 1,
 "engine": "InnoDB",
 "field_order": [
  "nombre",
  "descripcion"
 ],
 "fields": [
  {
   "fieldname": "nombre",
   "fieldtype": "Data",
   "in_list_view": 1,
   "label": "Nombre",
   "reqd": 1,
   "unique": 1
  },
  {
   "fieldname": "descripcion",
   "fieldtype": "Data",
   "in_list_view": 1,
   "label": "Descripcion"
  }
 ],
 "index_web_pages_for_search": 1,
 "links": [],
 "modified": "2023-03-19 12:46:27.942912",
 "modified_by": "Administrator",
 "module": "Kopa",
 "name": "Disciplinas FEDEPROBAT",
 "naming_rule": "By fieldname",
 "owner": "Administrator",
 "permissions": [
  {
   "create": 1,
   "delete": 1,
   "email": 1,
   "export": 1,
   "print": 1,
   "read": 1,
   "report": 1,
   "role": "System Manager",
   "share": 1,
   "write": 1
  }
 ],
 "sort_field": "modified",
 "sort_order": "DESC",
 "states": [],
 "track_changes": 1
}