{
 "actions": [],
 "autoname": "format:{campeonato}-{club}",
 "creation": "2018-08-01 11:20:14.932694",
 "doctype": "DocType",
 "editable_grid": 1,
 "engine": "InnoDB",
 "field_order": [
  "naming_series",
  "liga",
  "campeonato",
  "clubliga",
  "club",
  "column_break_3",
  "f_fin_de_inscripciones",
  "f_inicio_de_inscripciones",
  "categoria",
  "codigo_categoria",
  "anio",
  "grupo",
  "nombregrupo",
  "lista_jugadores_confirmada",
  "seccjugadores",
  "jugadores",
  "fase_section",
  "fase",
  "col000222",
  "nombrefase",
  "puntos",
  "gol_a_favor",
  "gol_en_contra",
  "amended_from"
 ],
 "fields": [
  {
   "fieldname": "naming_series",
   "fieldtype": "Code",
   "hidden": 1,
   "label": "Codigo",
   "options": "J-"
  },
  {
   "fieldname": "liga",
   "fieldtype": "Link",
   "in_standard_filter": 1,
   "label": "Liga",
   "options": "Liga"
  },
  {
   "fieldname": "campeonato",
   "fieldtype": "Link",
   "label": "Campeonato",
   "options": "Campeonato"
  },
  {
   "default": "0",
   "fetch_from": "club.club_liga",
   "fieldname": "clubliga",
   "fieldtype": "Link",
   "label": "C\u00f3digo Club",
   "options": "Club"
  },
  {
   "fetch_from": "clubliga.nombre",
   "fieldname": "club",
   "fieldtype": "Read Only",
   "in_list_view": 1,
   "in_standard_filter": 1,
   "label": "Club"
  },
  {
   "fieldname": "column_break_3",
   "fieldtype": "Column Break"
  },
  {
   "fetch_from": "campeonato.f_fin_de_inscripciones",
   "fieldname": "f_fin_de_inscripciones",
   "fieldtype": "Date",
   "label": "Fecha Fin Inscripciones",
   "print_hide": 1,
   "read_only": 1,
   "report_hide": 1
  },
  {
   "fetch_from": "campeonato.f_inicio_de_inscripciones",
   "fieldname": "f_inicio_de_inscripciones",
   "fieldtype": "Date",
   "label": "Fecha Inicio Inscripciones",
   "print_hide": 1,
   "read_only": 1,
   "report_hide": 1
  },
  {
   "fetch_from": "clubliga.nombrecategoria",
   "fieldname": "categoria",
   "fieldtype": "Read Only",
   "in_list_view": 1,
   "in_standard_filter": 1,
   "label": "Categoria"
  },
  {
   "fetch_from": "clubliga.categoria",
   "fieldname": "codigo_categoria",
   "fieldtype": "Read Only",
   "hidden": 1,
   "label": "Codigo Categoria"
  },
  {
   "fetch_from": "campeonato.fechai",
   "fieldname": "anio",
   "fieldtype": "Read Only",
   "hidden": 1,
   "label": "A\u00f1o",
   "read_only": 1
  },
  {
   "fieldname": "grupo",
   "fieldtype": "Link",
   "label": "Grupo",
   "options": "GrupoCategoria"
  },
  {
   "fetch_from": "grupo.nombre_grupo",
   "fieldname": "nombregrupo",
   "fieldtype": "Read Only",
   "in_list_view": 1,
   "in_standard_filter": 1,
   "label": "Nombre Grupo"
  },
  {
   "fieldname": "lista_jugadores_confirmada",
   "fieldtype": "Attach",
   "label": "Lista Jugadores confirmada",
   "read_only": 1,
   "read_only_depends_on": "eval: frappe.user.has_role(\"Administrador Liga\")\neval: frappe.user.has_role(\"FEDEPROBAT\")"
  },
  {
   "fieldname": "seccjugadores",
   "fieldtype": "Section Break",
   "label": "Jugadores"
  },
  {
   "fieldname": "jugadores",
   "fieldtype": "Table",
   "label": "Jugadores",
   "options": "JugadorClub"
  },
  {
   "fieldname": "fase_section",
   "fieldtype": "Section Break",
   "label": "Fases"
  },
  {
   "fieldname": "fase",
   "fieldtype": "Link",
   "label": "C\u00f3digo",
   "options": "CampeonatoFases"
  },
  {
   "fieldname": "col000222",
   "fieldtype": "Column Break"
  },
  {
   "fetch_from": "fase.nombre_fase",
   "fieldname": "nombrefase",
   "fieldtype": "Read Only",
   "in_list_view": 1,
   "in_standard_filter": 1,
   "label": "Nombre Fase"
  },
  {
   "fieldname": "puntos",
   "fieldtype": "Int",
   "hidden": 1,
   "label": "Puntos"
  },
  {
   "fieldname": "gol_a_favor",
   "fieldtype": "Int",
   "hidden": 1,
   "label": "Gol a Favor"
  },
  {
   "fieldname": "gol_en_contra",
   "fieldtype": "Int",
   "hidden": 1,
   "label": "Gol en Contra"
  },
  {
   "fieldname": "amended_from",
   "fieldtype": "Link",
   "label": "Amended From",
   "no_copy": 1,
   "options": "ClubJugadores",
   "print_hide": 1,
   "read_only": 1
  }
 ],
 "is_submittable": 1,
 "links": [],
 "modified": "2023-04-25 08:28:00.210379",
 "modified_by": "Administrator",
 "module": "Kopa",
 "name": "ClubJugadores",
 "naming_rule": "Expression",
 "owner": "Administrator",
 "permissions": [
  {
   "create": 1,
   "delete": 1,
   "email": 1,
   "export": 1,
   "print": 1,
   "read": 1,
   "report": 1,
   "role": "System Manager",
   "share": 1,
   "write": 1
  },
  {
   "email": 1,
   "export": 1,
   "print": 1,
   "read": 1,
   "report": 1,
   "role": "FEDEPROBAT",
   "select": 1,
   "share": 1
  },
  {
   "create": 1,
   "email": 1,
   "export": 1,
   "print": 1,
   "read": 1,
   "report": 1,
   "role": "Administrador Liga",
   "select": 1,
   "write": 1
  },
  {
   "amend": 1,
   "create": 1,
   "email": 1,
   "export": 1,
   "print": 1,
   "read": 1,
   "report": 1,
   "role": "Administrador Club",
   "select": 1,
   "write": 1
  },
  {
   "export": 1,
   "print": 1,
   "read": 1,
   "report": 1,
   "role": "COMISION TECNICA"
  }
 ],
 "search_fields": "campeonato,club,categoria",
 "sort_field": "modified",
 "sort_order": "DESC",
 "states": [],
 "title_field": "campeonato",
 "track_changes": 1
}