{
 "charts": [],
 "content": "[{\"id\":\"0Buq-vbx6p\",\"type\":\"header\",\"data\":{\"text\":\"<span class=\\\"h4\\\">Mi Club</span>\",\"col\":12}},{\"id\":\"9dLZtSNpoR\",\"type\":\"shortcut\",\"data\":{\"shortcut_name\":\"Directiva\",\"col\":3}},{\"id\":\"4Ac3tjNif2\",\"type\":\"shortcut\",\"data\":{\"shortcut_name\":\"Registro de Jugadores\",\"col\":3}},{\"id\":\"JomS_dLFgP\",\"type\":\"shortcut\",\"data\":{\"shortcut_name\":\"Inscripciones\",\"col\":3}},{\"id\":\"5epId5FPt8\",\"type\":\"shortcut\",\"data\":{\"shortcut_name\":\"Club\",\"col\":3}},{\"id\":\"CFMkRIOeWq\",\"type\":\"shortcut\",\"data\":{\"shortcut_name\":\"Dar Pase a Jugador\",\"col\":3}},{\"id\":\"T8c1ID1hzV\",\"type\":\"shortcut\",\"data\":{\"shortcut_name\":\"Pases Aprobados\",\"col\":3}},{\"id\":\"iOj-tHHkkm\",\"type\":\"header\",\"data\":{\"text\":\"<span class=\\\"h4\\\"><b>Inscripciones</b></span>\",\"col\":12}},{\"id\":\"6yorYfAgLc\",\"type\":\"card\",\"data\":{\"card_name\":\"Inscripciones\",\"col\":4}},{\"id\":\"S66PPhO1tT\",\"type\":\"spacer\",\"data\":{\"col\":12}},{\"id\":\"1GOIk-vVhN\",\"type\":\"quick_list\",\"data\":{\"quick_list_name\":\"Participaciones de mi Club\",\"col\":4}}]",
 "creation": "2023-02-15 19:49:08.918797",
 "custom_blocks": [],
 "docstatus": 0,
 "doctype": "Workspace",
 "for_user": "",
 "hide_custom": 0,
 "icon": "table_2",
 "idx": 0,
 "is_hidden": 0,
 "label": "MiClub",
 "links": [
  {
   "hidden": 0,
   "is_query_report": 0,
   "label": "Inscripciones",
   "link_count": 1,
   "onboard": 0,
   "type": "Card Break"
  },
  {
   "hidden": 0,
   "is_query_report": 0,
   "label": "Inscripciones",
   "link_count": 0,
   "link_to": "ClubJugadores",
   "link_type": "DocType",
   "onboard": 0,
   "type": "Link"
  }
 ],
 "modified": "2024-02-29 21:40:45.245450",
 "modified_by": "Administrator",
 "module": "Kopa",
 "name": "MiClub",
 "number_cards": [],
 "owner": "Administrator",
 "parent_page": "",
 "public": 1,
 "quick_lists": [
  {
   "document_type": "ClubJugadores",
   "label": "Participaciones de mi Club"
  }
 ],
 "roles": [
  {
   "role": "COMISION TECNICA"
  },
  {
   "role": "Administrador Club"
  },
  {
   "role": "Administrador Liga"
  }
 ],
 "sequence_id": 1.0,
 "shortcuts": [
  {
   "color": "Grey",
   "doc_view": "List",
   "label": "Directiva",
   "link_to": "DirectivaClub",
   "type": "DocType"
  },
  {
   "color": "Cyan",
   "doc_view": "List",
   "label": "Registro de Jugadores",
   "link_to": "Jugador",
   "type": "DocType"
  },
  {
   "color": "Cyan",
   "doc_view": "List",
   "label": "Dar Pase a Jugador",
   "link_to": "JugadoresPasePendiente",
   "type": "DocType"
  },
  {
   "color": "Grey",
   "doc_view": "List",
   "label": "Pases Aprobados",
   "link_to": "JugadoresPasePendiente",
   "type": "DocType"
  },
  {
   "color": "Blue",
   "doc_view": "List",
   "label": "Club",
   "link_to": "Club",
   "type": "DocType"
  },
  {
   "color": "Blue",
   "doc_view": "List",
   "label": "Inscripciones",
   "link_to": "ClubJugadores",
   "type": "DocType"
  }
 ],
 "title": "MiClub"
}