{
 "absolute_value": 0,
 "align_labels_right": 0,
 "creation": "2022-02-09 08:15:21.271056",
 "css": ".estilo_texto_header{\n    font-size:16px;\n    padding-top:10px;\n    padding-left:50px;\n    line-height: 0.8;\n}\n.estilo_texto{\n    font-size:18px;\n    padding-top:10px;\n    padding-bottom:5px;\n    padding-left:50px;\n    line-height: 1.4;\n}\n.estilo_texto b{\n    color:#010B58;\n}\n\n.estilo_texto_azul   {\n    color:#010B58;\n    font-size:18px;\n}\n.estilo_fecha{\n    font-size:18px;\n    padding-top:10px;\n    padding-left:50px;\n    line-height: 1.8;\n}\n.estilo_fecha b{\n    color:#010B58;\n}\n.estilo_fecha_azul   {\n    color:#010B58;\n    font-size:15px;\n}\n\n/* UK Foolscap / Oficio PORTRAIT page size BEGINS */\n@media all {\n    .print-format {\n    font-family: 'Open Sans', sans-serif;\n        margin-left:0mm;\n        margin-top:0mm;\n        margin-right:0mm;\n        margin-bottom:0mm;\n}\n/*.print-format.landscape {\n      max-width: 6.5cm;\n      width: 6.5cm;\n  }\n.print-format.portrait {\n      max-width: 9cm;\n      width: 9cm;\n  }*/\n}\n/* UK Foolscap / Oficio PORTRAIT page size ENDS */",
 "custom_format": 1,
 "default_print_language": "es",
 "disabled": 1,
 "doc_type": "ClubJugadores",
 "docstatus": 0,
 "doctype": "Print Format",
 "font": "Default",
 "font_size": 14,
 "html": "<meta name=\"pdfkit-page-size\" content=\"Legal\"/>\r\n<meta name=\"pdfkit-orientation\" content=\"portrait\"/>\r\n\r\n{%set jugadorclub =  frappe.get_doc(\"JugadorClub\",{'parent':doc.name})%}\r\n{%set liga = frappe.get_doc(\"Liga\",doc.liga)%}\r\n     \r\n{%- for row in doc.jugadores\r\n   if row.aprobado == 1 and row.foto != NULL and row.numero>0 and row.con_sancion==0:\r\n-%}\r\n<table   style=\"width:84% ; height=800px; margin-left:8%\" >\r\n    <tr style=\"background-image:url(/files/fondocarnet-cabecera.png);background-size: cover;\"> \r\n        <td> \r\n            <table style=\"width:95% \"  >\r\n                <tr>\r\n                    <td style=\"width:30%;\" align=\"center\" >  \r\n                        <img style=\"height:150px;\"  src='{{liga.logo}}'/>\r\n                    </td>\r\n                    <td align=\"center\" > \r\n                        <h2> <b> {{liga.nombre}} </b>  </h2>\r\n                        <p class=\"estilo_texto_header\"> FUNDADO EL {{liga.fecha_fundacion}}  </p>  \r\n                        <p class=\"estilo_texto_header\"> REFORMA ESTATUTOS N\u00b0 {{liga.resolucion_ministerial}} </p> \r\n                        <p class=\"estilo_texto_header\"> {{doc.categoria}} </p> \r\n                    </td>\r\n                </tr>\r\n            </table>\r\n        </td>\r\n    </tr>\r\n    <tr style=\"background-image:url(/files/fondocarnet-detalle.png);background-size: cover;height: 100%;\"> \r\n        <td>  \r\n            <table style=\"width:100% ;  border-top: 2px solid #999; \" > \r\n                <tr> \r\n                    <td align=\"left\" >\r\n                        <p> &nbsp; </p>\r\n                        \r\n                        <p class=\"estilo_texto\"> <b>Club: </b>\t<span class=\"estilo_texto_azul\">{{doc.club}}</span>  </p>\r\n                        <p class=\"estilo_texto\"> <b>CI: </b><span class=\"estilo_texto_azul\">{{row.jugador}}</span>  </p>\r\n                        <p class=\"estilo_texto\"> <b>Apellidos: </b><span class=\"estilo_texto_azul\" >{{row.apellidos}}</span>  </p>\r\n                        <p class=\"estilo_texto\"> <b>Nombres: </b><span class=\"estilo_texto_azul\" >{{row.nombres}}</span>  </p>\r\n                        <p class=\"estilo_texto\"> <b>N\u00famero: </b><span class=\"estilo_texto_azul\" >{{row.numero}}</span>  </p>\r\n                        <br>\r\n                        <p><img src='{{row.copia_cedula}}'  style=\"height:280px;width:450px\"/></p>\r\n                        \r\n                    </td>\r\n                    <td  align=\"right\"  style=\"width:30%  \" >  \r\n                       <table>\r\n                            <tr>\r\n                                <td><img style=\"height:240px;\" src='{{row.foto}}'/> \r\n                                <p class=\"estilo_fecha\"> <b>Fecha de Resgistro: </b><span class=\"estilo_fecha_azul\">{{row.fecharegistro}}</span>  </p></td>\r\n                            </tr>\r\n                            <tr>\r\n                                <td align=\"middle\"><img src='https://barcode.tec-it.com/barcode.ashx?data=http://62.171.170.162:8086/historia_jugador?ci={{row.jugador}}&code=QRCode' width=\"148px\" /></td>\r\n                            </tr>\r\n                        </table>\r\n                    </td>\r\n                </tr>\r\n            </table>\r\n        </td>\r\n    </tr>\r\n    \r\n</table>\r\n <div class=\"page-break\"></div>\r\n{% endfor %}",
 "idx": 0,
 "line_breaks": 0,
 "margin_bottom": 15.0,
 "margin_left": 15.0,
 "margin_right": 15.0,
 "margin_top": 15.0,
 "modified": "2023-04-11 00:49:46.683043",
 "modified_by": "Administrator",
 "module": "CLUBS",
 "name": "Carnet",
 "owner": "Administrator",
 "page_number": "Hide",
 "print_format_builder": 0,
 "print_format_builder_beta": 0,
 "print_format_type": "Jinja",
 "raw_printing": 0,
 "show_section_headings": 0,
 "standard": "Yes"
}