{
 "absolute_value": 0,
 "align_labels_right": 0,
 "creation": "2022-04-16 16:41:03.633565",
 "css": ".estilo_texto_header{\n    font-size:18px;\n    padding-top:10px;\n    padding-left:50px;\n    line-height: 0.8;\n}\n\n.estilo_texto{\n    font-size:18px;\n    padding-top:10px;\n    padding-bottom:5px;\n    padding-left:50px;\n    line-height: 1.4;\n}\n.estilo_texto b{\n    color:#010B58;\n}\n\n.estilo_texto_azul   {\n    color:#010B58;\n    font-size:18px;\n}\n.estilo_fecha{\n    font-size:18px;\n    padding-top:10px;\n    padding-left:50px;\n    line-height: 1.8;\n}\n.estilo_fecha b{\n    color:#010B58;\n}\n.estilo_fecha_azul   {\n    color:#010B58;\n    font-size:15px;\n}\n\n.transformed{\n  /* id\u00e9ntico a rotateZ(45deg); */\n  transform: rotate(180deg);\n}\n\n/* UK Foolscap / Oficio PORTRAIT page size BEGINS */\n/*@media all {\n    .print-format {\n        padding: 0.0cm;\n        margin: 0.0cm 0.0cm 0.0cm 0.0cm;\n        float: left;\n        background-color: rgba(255,2555,255,1.0);\n        box-shadow: 0px 0px 9px rgba(0,0,0,0.5);\n    }\n}*/",
 "custom_format": 1,
 "default_print_language": "es",
 "disabled": 0,
 "doc_type": "ClubJugadores",
 "docstatus": 0,
 "doctype": "Print Format",
 "font": "Default",
 "font_size": 14,
 "html": "<meta name=\"pdfkit-page-size\" content=\"Legal\"/>\r\n<meta name=\"pdfkit-orientation\" content=\"landscape\"/>\r\n\r\n{%set jugadorclub =  frappe.get_doc(\"JugadorClub\",{'parent':doc.name})%}\r\n{%set liga = frappe.get_doc(\"Liga\",doc.liga)%}\r\n     \r\n{%- for row in doc.jugadores\r\n   if row.aprobado == 1 and row.darbaja==0 and row.copia_cedula != NULL and row.numero>0 and row.con_sancion==0:\r\n-%}\r\n<table   style=\"width:100% ; height=1000px;\" >\r\n    <tr> \r\n        <td style=\"width:70% \">\r\n                        <p><img src='{{row.copia_cedula}}'  style=\"height:650px;width:900px\"/></p>\r\n        </td>\r\n        <td style=\"width:30% \">\r\n            <table style=\"width:100% ;  border-top: 2px solid #999; \" > \r\n                <tr>\r\n                    <td style=\"width:100%;\" align=\"center\" >  \r\n                        <img style=\"height:200px;transform: rotate(360deg)\"  src='{{liga.firma_presidente}}'/><br>\r\n                    </td>\r\n                </tr>\r\n                <tr>\r\n                    <td align=\"center\" style=\"width:100%;\" > \r\n                        <img style=\"height:200px;transform: rotate(360deg)\"  src='{{liga.firma_comision}}'/><br>\r\n                    </td>\r\n                </tr>\r\n            </table>\r\n        </td>\r\n    </tr>\r\n</table>\r\n <div class=\"page-break\"></div>\r\n{% endfor %}",
 "idx": 0,
 "line_breaks": 0,
 "margin_bottom": 15.0,
 "margin_left": 15.0,
 "margin_right": 15.0,
 "margin_top": 15.0,
 "modified": "2023-05-12 00:48:24.067986",
 "modified_by": "Administrator",
 "module": "CLUBS",
 "name": "carnetsvacunas1",
 "owner": "Administrator",
 "page_number": "Hide",
 "print_format_builder": 0,
 "print_format_builder_beta": 0,
 "print_format_type": "Jinja",
 "raw_printing": 0,
 "show_section_headings": 0,
 "standard": "Yes"
}