{
 "actions": [],
 "autoname": "field:nombre",
 "creation": "2023-09-12 16:18:04.692067",
 "default_view": "List",
 "doctype": "DocType",
 "editable_grid": 1,
 "engine": "InnoDB",
 "field_order": [
  "nombre_completo",
  "sec0032",
  "logo",
  "col001",
  "nombre",
  "provincia",
  "datos_informativos_section",
  "no_telefono",
  "direcci\u00f3n"
 ],
 "fields": [
  {
   "fieldname": "nombre_completo",
   "fieldtype": "Data",
   "label": "Nombre completo"
  },
  {
   "fieldname": "col001",
   "fieldtype": "Column Break"
  },
  {
   "fieldname": "nombre",
   "fieldtype": "Data",
   "in_filter": 1,
   "in_list_view": 1,
   "in_standard_filter": 1,
   "label": "Nombre",
   "unique": 1
  },
  {
   "fieldname": "provincia",
   "fieldtype": "Data",
   "in_list_view": 1,
   "in_standard_filter": 1,
   "label": "Provincia"
  },
  {
   "fieldname": "datos_informativos_section",
   "fieldtype": "Section Break",
   "label": "Datos Informativos"
  },
  {
   "fieldname": "no_telefono",
   "fieldtype": "Data",
   "label": "No telefono"
  },
  {
   "fieldname": "direcci\u00f3n",
   "fieldtype": "Data",
   "label": "Direcci\u00f3n"
  },
  {
   "fieldname": "sec0032",
   "fieldtype": "Section Break"
  },
  {
   "fieldname": "logo",
   "fieldtype": "Attach Image",
   "label": "Logo"
  }
 ],
 "image_field": "logo",
 "index_web_pages_for_search": 1,
 "links": [],
 "modified": "2023-09-21 00:36:56.085746",
 "modified_by": "Administrator",
 "module": "Kopa",
 "name": "federacion",
 "naming_rule": "By fieldname",
 "owner": "Administrator",
 "permissions": [
  {
   "create": 1,
   "delete": 1,
   "email": 1,
   "export": 1,
   "print": 1,
   "read": 1,
   "report": 1,
   "role": "System Manager",
   "share": 1,
   "write": 1
  }
 ],
 "search_fields": "nombre_completo,nombre,provincia",
 "sort_field": "modified",
 "sort_order": "DESC",
 "states": [],
 "title_field": "nombre",
 "track_changes": 1,
 "track_seen": 1
}