{
 "actions": [],
 "allow_rename": 1,
 "autoname": "format:{codigo_prov}-{codigo_liga}-{nombre}",
 "creation": "2022-03-03 00:28:51.452485",
 "doctype": "DocType",
 "editable_grid": 1,
 "engine": "InnoDB",
 "field_order": [
  "federacion",
  "codigo_prov",
  "codigo_liga",
  "liga",
  "col001",
  "nombreclub",
  "nombre",
  "logoclub",
  "resolucion",
  "fecha_fundacion"
 ],
 "fields": [
  {
   "fieldname": "nombreclub",
   "fieldtype": "Link",
   "label": "Club",
   "options": "Club"
  },
  {
   "fieldname": "liga",
   "fieldtype": "Link",
   "label": "Liga",
   "options": "Liga"
  },
  {
   "fetch_from": "nombreclub.nombre",
   "fieldname": "nombre",
   "fieldtype": "Read Only",
   "label": "Nombre"
  },
  {
   "fieldname": "federacion",
   "fieldtype": "Link",
   "label": "Federacion",
   "options": "federacion"
  },
  {
   "fetch_from": "federacion.codigoprovincia",
   "fieldname": "codigo_prov",
   "fieldtype": "Read Only",
   "label": "Codigo prov."
  },
  {
   "fieldname": "col001",
   "fieldtype": "Column Break"
  },
  {
   "fetch_from": "liga.nombre",
   "fieldname": "codigo_liga",
   "fieldtype": "Read Only",
   "label": "Codigo liga"
  },
  {
   "fetch_from": "nombreclub.logo",
   "fieldname": "logoclub",
   "fieldtype": "Read Only",
   "label": "LogoClub",
   "read_only": 1
  },
  {
   "fetch_from": "nombreclub.resolucion",
   "fieldname": "resolucion",
   "fieldtype": "Read Only",
   "hidden": 1,
   "label": "Resolucion"
  },
  {
   "fetch_from": "nombreclub.fecha_fundacion",
   "fieldname": "fecha_fundacion",
   "fieldtype": "Read Only",
   "hidden": 1,
   "label": "Fecha fundacion"
  }
 ],
 "index_web_pages_for_search": 1,
 "links": [],
 "modified": "2024-06-11 01:12:06.640009",
 "modified_by": "Administrator",
 "module": "FEDERACION",
 "name": "Clubs Fedeprobat",
 "naming_rule": "Expression",
 "owner": "Administrator",
 "permissions": [
  {
   "create": 1,
   "delete": 1,
   "email": 1,
   "export": 1,
   "print": 1,
   "read": 1,
   "report": 1,
   "role": "System Manager",
   "share": 1,
   "write": 1
  }
 ],
 "search_fields": "nombreclub",
 "sort_field": "modified",
 "sort_order": "DESC",
 "states": [],
 "title_field": "nombreclub",
 "track_changes": 1
}